{
    "login":{
        "title":"GDPR VALIDATION PORTAL",
        "name":{
            "caption":"Username",
            "placeholder":"Enter Username"
        },
        "password":{
            "caption":"Password",
            "placeholder":"Enter Password"
        },
        "credentials":{
            "user":{
                "name":"admin",
                "errorText":"Enter Valid userName"
            },
            "password":{
                "pswd":"admin",
                "errorText":"Enter Valid Password"
            },
            "errorText":"Enter Valid Username & Password"

        }
    },
    "sidemenu":{
        "title":"GDPR PORTAL",
    "menuItems":[
        {"id":1,"menuName":"Dashboard","link":"/dashboard","icon":"dashboard"},
        {"id":2,"menuName":"Grid","link":"/grid","icon":"grid"},
        {"id":3,"menuName":"Logout","link":"","icon":"logout"}
     ]
    },
    "dashboard":{
        "title":"Collection Point Dashboard - PRD",
        "totalCollectionText":"Total Collection Points",
        "invalidCollectionText":"Invalid Collection Points",
        "invalidRecords":"Percentage of Invalid Records",
        "majorInvalidity":"Major Invalidity occured on",
        "validColText":"Valid Collection Points",
        "invalidColText":"Invalid Collection Points",
        "calloutOneText":["Duplicate",
                            "ACTIVE collection points containing Invalid Privacy policy",
                            "Collection Point not containing 18 purposes",
                            "Collection point not containing Touchpoints",
                            "Collection Point name with white space in starting/trailing"
                        ],
        "calloutTwoText":[
                "Collection Point name containing Incorrect encoding",
                "Collection Point name not aligned with organization name",
                "Collection Point containing Inappropriate transaction status"
        ]
        

    }

}